<?xml version="1.0" encoding="utf-8"?>
<!-- Generator: Adobe Illustrator 18.1.0, SVG Export Plug-In . SVG Version: 6.00 Build 0)  -->
<svg version="1.1" id="Layer_1" xmlns="http://www.w3.org/2000/svg" xmlns:xlink="http://www.w3.org/1999/xlink" x="0px" y="0px"
	 viewBox="0 0 332 201.5" enable-background="new 0 0 332 201.5" xml:space="preserve">
<g>
	<defs>
		<rect id="SVGID_1_" width="332" height="201.5"/>
	</defs>
	<clipPath id="SVGID_2_">
		<use xlink:href="#SVGID_1_"  overflow="visible"/>
	</clipPath>
	<g clip-path="url(#SVGID_2_)">
		<defs>
			<rect id="SVGID_3_" width="332" height="201.5"/>
		</defs>
		<clipPath id="SVGID_4_">
			<use xlink:href="#SVGID_3_"  overflow="visible"/>
		</clipPath>
		<g opacity="0.6" clip-path="url(#SVGID_4_)">
			<g>
				<defs>
					<rect id="SVGID_5_" x="166.2" y="73.9" width="48.8" height="84.2"/>
				</defs>
				<clipPath id="SVGID_6_">
					<use xlink:href="#SVGID_5_"  overflow="visible"/>
				</clipPath>
				<path clip-path="url(#SVGID_6_)" fill="#0000ff" d="M213.9,132.1l-3.2-31.4c0.3-1.7,0.3-3.5,0.2-5.3c-0.2-1.9-0.6-3.8-1.3-5.6
					l-0.4-1.1c-3.7-8.8-12.7-15-22.7-14.8c-10,0.2-17.9,7-19.8,16h0l0,0.1c-0.4,2.1-0.6,4.2-0.4,6.5c0.2,2.3,0.8,4.6,1.7,6.7
					l3.3,32.2c-1.1,10.5,6.9,20.4,18.4,22.3c12,2,23.2-5.2,25-16.2C215.3,138.3,215,135.1,213.9,132.1"/>
			</g>
		</g>
		<g opacity="0.6" clip-path="url(#SVGID_4_)">
			<g>
				<defs>
					<rect id="SVGID_7_" x="105.3" y="67.5" width="46.4" height="80.1"/>
				</defs>
				<clipPath id="SVGID_8_">
					<use xlink:href="#SVGID_7_"  overflow="visible"/>
				</clipPath>
				<path clip-path="url(#SVGID_8_)" fill="#D817FF" d="M150.8,122.9l-3-29.9c0.3-1.6,0.3-3.3,0.1-5.1c-0.2-1.8-0.6-3.6-1.2-5.3
					l-0.4-1.1c-3.5-8.4-12.1-14.3-21.6-14c-9.5,0.2-17,6.6-18.9,15.2h0l0,0.1c-0.4,2-0.5,4-0.3,6.1c0.2,2.2,0.8,4.4,1.6,6.4
					l3.1,30.7c-1,10,6.6,19.4,17.5,21.3c11.4,1.9,22-5,23.8-15.5C152,128.8,151.7,125.7,150.8,122.9"/>
			</g>
		</g>
		<g opacity="0.6" clip-path="url(#SVGID_4_)">
			<g>
				<defs>
					<rect id="SVGID_9_" x="226.2" y="66.1" width="42" height="62.7"/>
				</defs>
				<clipPath id="SVGID_10_">
					<use xlink:href="#SVGID_9_"  overflow="visible"/>
				</clipPath>
				<path clip-path="url(#SVGID_10_)" fill="#D817FF" d="M267.3,109.8l-2.5-23.4c0.2-1.3,0.3-2.6,0.2-4c-0.1-1.4-0.5-2.8-1-4.2
					l-0.4-0.8c-3.2-6.6-10.9-11.3-19.6-11.3c-8.7,0-15.6,4.9-17.4,11.6h0l0,0.1c-0.4,1.5-0.5,3.1-0.4,4.8c0.2,1.7,0.7,3.4,1.4,5
					l2.6,24c-1,7.8,5.8,15.3,15.8,16.9c10.4,1.7,20.2-3.6,21.9-11.7C268.4,114.4,268.2,112,267.3,109.8"/>
			</g>
		</g>
		<g opacity="0.6" clip-path="url(#SVGID_4_)">
			<g>
				<defs>
					<rect id="SVGID_11_" x="49.3" y="54.1" width="35.1" height="63.6"/>
				</defs>
				<clipPath id="SVGID_12_">
					<use xlink:href="#SVGID_11_"  overflow="visible"/>
				</clipPath>
				<path clip-path="url(#SVGID_12_)" fill="#D817FF" d="M83.8,97.5l-1.4-23.7c0.3-1.3,0.4-2.7,0.3-4c-0.1-1.5-0.3-2.9-0.8-4.2
					l-0.3-0.8c-2.5-6.6-9-11-16.5-10.6c-7.5,0.5-13.6,5.8-15.4,12.7l0,0l0,0.1c-0.4,1.6-0.6,3.2-0.5,4.9c0.1,1.8,0.5,3.5,1.1,5
					l1.4,24.4c-1.1,8,4.5,15.3,13.1,16.4c8.9,1.2,17.5-4.6,19.3-13C84.6,102.1,84.5,99.7,83.8,97.5"/>
			</g>
		</g>
	</g>
</g>
</svg>
